// Jest Snapshot v1, https://goo.gl/fbAQLP

exports[`Post component when fetch is fulfilled and post isn't dismissed renders post data 1`] = `
"<article class=\\"post\\"><h5 class=\\"author\\">PoppyK</h5><h1 class=\\"title\\">Opinion: Tournament Organizers and match admins should be the ONLY ones responsible for decisions like round rollbacks and similar.</h1><div class=\\"postContent\\"><!-- SC_OFF --><div class=\\"md\\"><p>Pretty easy solution for problems like the one we had on MIBR vs FURIA. Leaving the decision to the players adds nothing but potential controversy into their hands.</p>

<p>We had pretty much the same drama years ago when Hiko refused to rollback against LG happening again now.</p>

<p>In case something happens, just take your rulebook and slam it on everyones face. End of story.</p>
</div><!-- SC_ON --></div></article>"
`;
